{
    "sourceFile": "src/views/App/Notification/Error.js",
    "activeCommit": 0,
    "commits": [
        {
            "activePatchIndex": 0,
            "patches": [
                {
                    "date": 1624094687316,
                    "content": "Index: \n===================================================================\n--- \n+++ \n"
                }
            ],
            "date": 1624094687316,
            "name": "Commit-0",
            "content": "import {\r\n  CAlert,\r\n} from '@coreui/react'\r\nimport {\r\n  FaUndoAlt,\r\n} from 'react-icons/fa'\r\n\r\nconst Error = (props) => {\r\n\r\n  if(props.message){\r\n    return (\r\n      <CAlert color=\"danger\">\r\n        <div className=\"row\">\r\n          <div className=\"col-md-6\">\r\n            <strong>Error Message : </strong><br/> {props.message}\r\n          </div>\r\n          <div className=\"col-md-6 text-right\">\r\n            <button type=\"button\" name=\"\" id=\"\" className=\"btn btn-sm btn-outline\" onClick={() => { window.location.reload() }}><FaUndoAlt/></button>\r\n          </div>\r\n        </div>\r\n      </CAlert>\r\n    )\r\n  }\r\n  else{\r\n    return (\r\n      <></>\r\n    )\r\n  }\r\n}\r\n\r\nexport default Error\r\n"
        }
    ]
}