{
    "sourceFile": "src/routes.js",
    "activeCommit": 0,
    "commits": [
        {
            "activePatchIndex": 29,
            "patches": [
                {
                    "date": 1624092307601,
                    "content": "Index: \n===================================================================\n--- \n+++ \n"
                },
                {
                    "date": 1624097301563,
                    "content": "Index: \n===================================================================\n--- \n+++ \n@@ -1,12 +1,14 @@\n import React from 'react';\r\n \r\n const Dashboard = React.lazy(() => import('./views/dashboard/Dashboard'));\r\n const User = React.lazy(() => import('./views/App/User Management/User'));\r\n+const UserType = React.lazy(() => import('./views/App/Master/UserType'));\r\n \r\n const routes = [\r\n   { path: '/', exact: true, name: 'Home' },\r\n   { path: '/dashboard', name: 'Dashboard', component: Dashboard },\r\n+  { path: '/master/user-type', name: 'Master / User Type', component: UserType },\r\n   { path: '/user-management/user', name: 'User Management / User', component: User },\r\n \r\n ];\r\n \r\n"
                },
                {
                    "date": 1624245914679,
                    "content": "Index: \n===================================================================\n--- \n+++ \n@@ -7,8 +7,12 @@\n const routes = [\r\n   { path: '/', exact: true, name: 'Home' },\r\n   { path: '/dashboard', name: 'Dashboard', component: Dashboard },\r\n   { path: '/master/user-type', name: 'Master / User Type', component: UserType },\r\n+  { path: '/master/user/employee', name: 'Master / User / Employee', component: UserType },\r\n+  { path: '/master/user/student', name: 'Master / User / Student', component: UserType },\r\n+  { path: '/master/user/teacher', name: 'Master / User / Teacher', component: UserType },\r\n+  { path: '/master/user/other', name: 'Master / User / Other', component: UserType },\r\n   { path: '/user-management/user', name: 'User Management / User', component: User },\r\n \r\n ];\r\n \r\n"
                },
                {
                    "date": 1624421780513,
                    "content": "Index: \n===================================================================\n--- \n+++ \n@@ -4,8 +4,9 @@\n const User = React.lazy(() => import('./views/App/User Management/User'));\r\n const UserType = React.lazy(() => import('./views/App/Master/UserType'));\r\n \r\n const routes = [\r\n+  { path: '/login', exact: true, name: 'Login' },\r\n   { path: '/', exact: true, name: 'Home' },\r\n   { path: '/dashboard', name: 'Dashboard', component: Dashboard },\r\n   { path: '/master/user-type', name: 'Master / User Type', component: UserType },\r\n   { path: '/master/user/employee', name: 'Master / User / Employee', component: UserType },\r\n"
                },
                {
                    "date": 1624421822847,
                    "content": "Index: \n===================================================================\n--- \n+++ \n@@ -1,12 +1,14 @@\n import React from 'react';\r\n \r\n+const Login = React.lazy(() => import('./views/pages/login/Login'));\r\n+\r\n const Dashboard = React.lazy(() => import('./views/dashboard/Dashboard'));\r\n const User = React.lazy(() => import('./views/App/User Management/User'));\r\n const UserType = React.lazy(() => import('./views/App/Master/UserType'));\r\n \r\n const routes = [\r\n-  { path: '/login', exact: true, name: 'Login' },\r\n+  { path: '/login', exact: true, name: 'Login', component: Login },\r\n   { path: '/', exact: true, name: 'Home' },\r\n   { path: '/dashboard', name: 'Dashboard', component: Dashboard },\r\n   { path: '/master/user-type', name: 'Master / User Type', component: UserType },\r\n   { path: '/master/user/employee', name: 'Master / User / Employee', component: UserType },\r\n"
                },
                {
                    "date": 1624421851574,
                    "content": "Index: \n===================================================================\n--- \n+++ \n@@ -1,14 +1,11 @@\n import React from 'react';\r\n \r\n-const Login = React.lazy(() => import('./views/pages/login/Login'));\r\n-\r\n const Dashboard = React.lazy(() => import('./views/dashboard/Dashboard'));\r\n const User = React.lazy(() => import('./views/App/User Management/User'));\r\n const UserType = React.lazy(() => import('./views/App/Master/UserType'));\r\n \r\n const routes = [\r\n-  { path: '/login', exact: true, name: 'Login', component: Login },\r\n   { path: '/', exact: true, name: 'Home' },\r\n   { path: '/dashboard', name: 'Dashboard', component: Dashboard },\r\n   { path: '/master/user-type', name: 'Master / User Type', component: UserType },\r\n   { path: '/master/user/employee', name: 'Master / User / Employee', component: UserType },\r\n"
                },
                {
                    "date": 1624429110793,
                    "content": "Index: \n===================================================================\n--- \n+++ \n@@ -1,18 +1,24 @@\n import React from 'react';\r\n \r\n const Dashboard = React.lazy(() => import('./views/dashboard/Dashboard'));\r\n+\r\n const User = React.lazy(() => import('./views/App/User Management/User'));\r\n+\r\n const UserType = React.lazy(() => import('./views/App/Master/UserType'));\r\n+const Employee = React.lazy(() => import('./views/App/Master/User/Employee'));\r\n+const Student  = React.lazy(() => import('./views/App/Master/User/Employee'));\r\n+const Teacher  = React.lazy(() => import('./views/App/Master/User/Employee'));\r\n+const Other    = React.lazy(() => import('./views/App/Master/User/Employee'));\r\n \r\n const routes = [\r\n   { path: '/', exact: true, name: 'Home' },\r\n   { path: '/dashboard', name: 'Dashboard', component: Dashboard },\r\n   { path: '/master/user-type', name: 'Master / User Type', component: UserType },\r\n-  { path: '/master/user/employee', name: 'Master / User / Employee', component: UserType },\r\n-  { path: '/master/user/student', name: 'Master / User / Student', component: UserType },\r\n-  { path: '/master/user/teacher', name: 'Master / User / Teacher', component: UserType },\r\n-  { path: '/master/user/other', name: 'Master / User / Other', component: UserType },\r\n+  { path: '/master/user/employee', name: 'Master / User / Employee', component: Employee },\r\n+  { path: '/master/user/student', name: 'Master / User / Student', component: Student },\r\n+  { path: '/master/user/teacher', name: 'Master / User / Teacher', component: Teacher },\r\n+  { path: '/master/user/other', name: 'Master / User / Other', component: Other },\r\n   { path: '/user-management/user', name: 'User Management / User', component: User },\r\n \r\n ];\r\n \r\n"
                },
                {
                    "date": 1624429156691,
                    "content": "Index: \n===================================================================\n--- \n+++ \n@@ -11,14 +11,17 @@\n const Other    = React.lazy(() => import('./views/App/Master/User/Employee'));\r\n \r\n const routes = [\r\n   { path: '/', exact: true, name: 'Home' },\r\n+  \r\n   { path: '/dashboard', name: 'Dashboard', component: Dashboard },\r\n+  \r\n   { path: '/master/user-type', name: 'Master / User Type', component: UserType },\r\n   { path: '/master/user/employee', name: 'Master / User / Employee', component: Employee },\r\n   { path: '/master/user/student', name: 'Master / User / Student', component: Student },\r\n   { path: '/master/user/teacher', name: 'Master / User / Teacher', component: Teacher },\r\n   { path: '/master/user/other', name: 'Master / User / Other', component: Other },\r\n+\r\n   { path: '/user-management/user', name: 'User Management / User', component: User },\r\n \r\n ];\r\n \r\n"
                },
                {
                    "date": 1624429237282,
                    "content": "Index: \n===================================================================\n--- \n+++ \n@@ -4,12 +4,12 @@\n \r\n const User = React.lazy(() => import('./views/App/User Management/User'));\r\n \r\n const UserType = React.lazy(() => import('./views/App/Master/UserType'));\r\n-const Employee = React.lazy(() => import('./views/App/Master/User/Employee'));\r\n-const Student  = React.lazy(() => import('./views/App/Master/User/Employee'));\r\n-const Teacher  = React.lazy(() => import('./views/App/Master/User/Employee'));\r\n-const Other    = React.lazy(() => import('./views/App/Master/User/Employee'));\r\n+const Employee = React.lazy(() => import('./views/App/Master/UserType'));\r\n+const Student  = React.lazy(() => import('./views/App/Master/UserType'));\r\n+const Teacher  = React.lazy(() => import('./views/App/Master/UserType'));\r\n+const Other    = React.lazy(() => import('./views/App/Master/UserType'));\r\n \r\n const routes = [\r\n   { path: '/', exact: true, name: 'Home' },\r\n   \r\n"
                },
                {
                    "date": 1624429246915,
                    "content": "Index: \n===================================================================\n--- \n+++ \n@@ -4,9 +4,9 @@\n \r\n const User = React.lazy(() => import('./views/App/User Management/User'));\r\n \r\n const UserType = React.lazy(() => import('./views/App/Master/UserType'));\r\n-const Employee = React.lazy(() => import('./views/App/Master/UserType'));\r\n+const Employee = React.lazy(() => import('./views/App/Master/User/Employee'));\r\n const Student  = React.lazy(() => import('./views/App/Master/UserType'));\r\n const Teacher  = React.lazy(() => import('./views/App/Master/UserType'));\r\n const Other    = React.lazy(() => import('./views/App/Master/UserType'));\r\n \r\n"
                },
                {
                    "date": 1624429292540,
                    "content": "Index: \n===================================================================\n--- \n+++ \n@@ -4,9 +4,9 @@\n \r\n const User = React.lazy(() => import('./views/App/User Management/User'));\r\n \r\n const UserType = React.lazy(() => import('./views/App/Master/UserType'));\r\n-const Employee = React.lazy(() => import('./views/App/Master/User/Employee'));\r\n+const Employee = React.lazy(() => import('./views/App/Master/User/UserType'));\r\n const Student  = React.lazy(() => import('./views/App/Master/UserType'));\r\n const Teacher  = React.lazy(() => import('./views/App/Master/UserType'));\r\n const Other    = React.lazy(() => import('./views/App/Master/UserType'));\r\n \r\n"
                },
                {
                    "date": 1624429322148,
                    "content": "Index: \n===================================================================\n--- \n+++ \n@@ -4,9 +4,9 @@\n \r\n const User = React.lazy(() => import('./views/App/User Management/User'));\r\n \r\n const UserType = React.lazy(() => import('./views/App/Master/UserType'));\r\n-const Employee = React.lazy(() => import('./views/App/Master/User/UserType'));\r\n+const Employee = React.lazy(() => import('./views/App/Master/Users/UserType'));\r\n const Student  = React.lazy(() => import('./views/App/Master/UserType'));\r\n const Teacher  = React.lazy(() => import('./views/App/Master/UserType'));\r\n const Other    = React.lazy(() => import('./views/App/Master/UserType'));\r\n \r\n"
                },
                {
                    "date": 1624429337133,
                    "content": "Index: \n===================================================================\n--- \n+++ \n@@ -4,9 +4,9 @@\n \r\n const User = React.lazy(() => import('./views/App/User Management/User'));\r\n \r\n const UserType = React.lazy(() => import('./views/App/Master/UserType'));\r\n-const Employee = React.lazy(() => import('./views/App/Master/Users/UserType'));\r\n+const Employee = React.lazy(() => import('./views/App/Master/User/UserType'));\r\n const Student  = React.lazy(() => import('./views/App/Master/UserType'));\r\n const Teacher  = React.lazy(() => import('./views/App/Master/UserType'));\r\n const Other    = React.lazy(() => import('./views/App/Master/UserType'));\r\n \r\n"
                },
                {
                    "date": 1624429346964,
                    "content": "Index: \n===================================================================\n--- \n+++ \n@@ -4,9 +4,9 @@\n \r\n const User = React.lazy(() => import('./views/App/User Management/User'));\r\n \r\n const UserType = React.lazy(() => import('./views/App/Master/UserType'));\r\n-const Employee = React.lazy(() => import('./views/App/Master/User/UserType'));\r\n+const Employee = React.lazy(() => import('./views/App/Master/User/Employee'));\r\n const Student  = React.lazy(() => import('./views/App/Master/UserType'));\r\n const Teacher  = React.lazy(() => import('./views/App/Master/UserType'));\r\n const Other    = React.lazy(() => import('./views/App/Master/UserType'));\r\n \r\n"
                },
                {
                    "date": 1625091642035,
                    "content": "Index: \n===================================================================\n--- \n+++ \n@@ -15,12 +15,10 @@\n   \r\n   { path: '/dashboard', name: 'Dashboard', component: Dashboard },\r\n   \r\n   { path: '/master/user-type', name: 'Master / User Type', component: UserType },\r\n-  { path: '/master/user/employee', name: 'Master / User / Employee', component: Employee },\r\n-  { path: '/master/user/student', name: 'Master / User / Student', component: Student },\r\n-  { path: '/master/user/teacher', name: 'Master / User / Teacher', component: Teacher },\r\n-  { path: '/master/user/other', name: 'Master / User / Other', component: Other },\r\n+  { path: '/master/user/buyer', name: 'Master / User / Buyer', component: Employee },\r\n+  { path: '/master/user/seller', name: 'Master / User / Seller', component: Student },\r\n \r\n   { path: '/user-management/user', name: 'User Management / User', component: User },\r\n \r\n ];\r\n"
                },
                {
                    "date": 1625299447051,
                    "content": "Index: \n===================================================================\n--- \n+++ \n@@ -6,10 +6,8 @@\n \r\n const UserType = React.lazy(() => import('./views/App/Master/UserType'));\r\n const Employee = React.lazy(() => import('./views/App/Master/User/Employee'));\r\n const Student  = React.lazy(() => import('./views/App/Master/UserType'));\r\n-const Teacher  = React.lazy(() => import('./views/App/Master/UserType'));\r\n-const Other    = React.lazy(() => import('./views/App/Master/UserType'));\r\n \r\n const routes = [\r\n   { path: '/', exact: true, name: 'Home' },\r\n   \r\n"
                },
                {
                    "date": 1625299490193,
                    "content": "Index: \n===================================================================\n--- \n+++ \n@@ -4,18 +4,18 @@\n \r\n const User = React.lazy(() => import('./views/App/User Management/User'));\r\n \r\n const UserType = React.lazy(() => import('./views/App/Master/UserType'));\r\n-const Employee = React.lazy(() => import('./views/App/Master/User/Employee'));\r\n+const Buyer = React.lazy(() => import('./views/App/Master/User/Buyer'));\r\n const Student  = React.lazy(() => import('./views/App/Master/UserType'));\r\n \r\n const routes = [\r\n   { path: '/', exact: true, name: 'Home' },\r\n   \r\n   { path: '/dashboard', name: 'Dashboard', component: Dashboard },\r\n   \r\n   { path: '/master/user-type', name: 'Master / User Type', component: UserType },\r\n-  { path: '/master/user/buyer', name: 'Master / User / Buyer', component: Employee },\r\n+  { path: '/master/user/buyer', name: 'Master / User / Buyer', component: Buyer },\r\n   { path: '/master/user/seller', name: 'Master / User / Seller', component: Student },\r\n \r\n   { path: '/user-management/user', name: 'User Management / User', component: User },\r\n \r\n"
                },
                {
                    "date": 1625327013812,
                    "content": "Index: \n===================================================================\n--- \n+++ \n@@ -5,18 +5,18 @@\n const User = React.lazy(() => import('./views/App/User Management/User'));\r\n \r\n const UserType = React.lazy(() => import('./views/App/Master/UserType'));\r\n const Buyer = React.lazy(() => import('./views/App/Master/User/Buyer'));\r\n-const Student  = React.lazy(() => import('./views/App/Master/UserType'));\r\n+const Seller  = React.lazy(() => import('./views/App/Master/User/Seller'));\r\n \r\n const routes = [\r\n   { path: '/', exact: true, name: 'Home' },\r\n   \r\n   { path: '/dashboard', name: 'Dashboard', component: Dashboard },\r\n   \r\n   { path: '/master/user-type', name: 'Master / User Type', component: UserType },\r\n   { path: '/master/user/buyer', name: 'Master / User / Buyer', component: Buyer },\r\n-  { path: '/master/user/seller', name: 'Master / User / Seller', component: Student },\r\n+  { path: '/master/user/seller', name: 'Master / User / Seller', component: Seller },\r\n \r\n   { path: '/user-management/user', name: 'User Management / User', component: User },\r\n \r\n ];\r\n"
                },
                {
                    "date": 1625345506291,
                    "content": "Index: \n===================================================================\n--- \n+++ \n@@ -15,8 +15,10 @@\n   \r\n   { path: '/master/user-type', name: 'Master / User Type', component: UserType },\r\n   { path: '/master/user/buyer', name: 'Master / User / Buyer', component: Buyer },\r\n   { path: '/master/user/seller', name: 'Master / User / Seller', component: Seller },\r\n+  { path: '/master/item/category', name: 'Master / Item / Category', component: UserType },\r\n+  { path: '/master/item/condition', name: 'Master / Item / Condition', component: UserType },\r\n \r\n   { path: '/user-management/user', name: 'User Management / User', component: User },\r\n \r\n ];\r\n"
                },
                {
                    "date": 1625345813991,
                    "content": "Index: \n===================================================================\n--- \n+++ \n@@ -6,8 +6,10 @@\n \r\n const UserType = React.lazy(() => import('./views/App/Master/UserType'));\r\n const Buyer = React.lazy(() => import('./views/App/Master/User/Buyer'));\r\n const Seller  = React.lazy(() => import('./views/App/Master/User/Seller'));\r\n+const Category  = React.lazy(() => import('./views/App/Master/Item/Category'));\r\n+const Condition  = React.lazy(() => import('./views/App/Master/Item/Condition'));\r\n \r\n const routes = [\r\n   { path: '/', exact: true, name: 'Home' },\r\n   \r\n@@ -15,10 +17,10 @@\n   \r\n   { path: '/master/user-type', name: 'Master / User Type', component: UserType },\r\n   { path: '/master/user/buyer', name: 'Master / User / Buyer', component: Buyer },\r\n   { path: '/master/user/seller', name: 'Master / User / Seller', component: Seller },\r\n-  { path: '/master/item/category', name: 'Master / Item / Category', component: UserType },\r\n-  { path: '/master/item/condition', name: 'Master / Item / Condition', component: UserType },\r\n+  { path: '/master/item/category', name: 'Master / Item / Category', component: Category },\r\n+  { path: '/master/item/condition', name: 'Master / Item / Condition', component: Condition },\r\n \r\n   { path: '/user-management/user', name: 'User Management / User', component: User },\r\n \r\n ];\r\n"
                },
                {
                    "date": 1625346435357,
                    "content": "Index: \n===================================================================\n--- \n+++ \n@@ -13,8 +13,9 @@\n const routes = [\r\n   { path: '/', exact: true, name: 'Home' },\r\n   \r\n   { path: '/dashboard', name: 'Dashboard', component: Dashboard },\r\n+  { path: '/sell-item', name: 'Sell Item', component: Dashboard },\r\n   \r\n   { path: '/master/user-type', name: 'Master / User Type', component: UserType },\r\n   { path: '/master/user/buyer', name: 'Master / User / Buyer', component: Buyer },\r\n   { path: '/master/user/seller', name: 'Master / User / Seller', component: Seller },\r\n"
                },
                {
                    "date": 1625370768895,
                    "content": "Index: \n===================================================================\n--- \n+++ \n@@ -1,7 +1,8 @@\n import React from 'react';\r\n \r\n const Dashboard = React.lazy(() => import('./views/dashboard/Dashboard'));\r\n+const SellItem = React.lazy(() => import('./views/App/Sell Item/SellItem'));\r\n \r\n const User = React.lazy(() => import('./views/App/User Management/User'));\r\n \r\n const UserType = React.lazy(() => import('./views/App/Master/UserType'));\r\n@@ -13,9 +14,9 @@\n const routes = [\r\n   { path: '/', exact: true, name: 'Home' },\r\n   \r\n   { path: '/dashboard', name: 'Dashboard', component: Dashboard },\r\n-  { path: '/sell-item', name: 'Sell Item', component: Dashboard },\r\n+  { path: '/sell-item', name: 'Sell Item', component: SellItem },\r\n   \r\n   { path: '/master/user-type', name: 'Master / User Type', component: UserType },\r\n   { path: '/master/user/buyer', name: 'Master / User / Buyer', component: Buyer },\r\n   { path: '/master/user/seller', name: 'Master / User / Seller', component: Seller },\r\n"
                },
                {
                    "date": 1625654006358,
                    "content": "Index: \n===================================================================\n--- \n+++ \n@@ -5,24 +5,16 @@\n \r\n const User = React.lazy(() => import('./views/App/User Management/User'));\r\n \r\n const UserType = React.lazy(() => import('./views/App/Master/UserType'));\r\n-const Buyer = React.lazy(() => import('./views/App/Master/User/Buyer'));\r\n-const Seller  = React.lazy(() => import('./views/App/Master/User/Seller'));\r\n-const Category  = React.lazy(() => import('./views/App/Master/Item/Category'));\r\n-const Condition  = React.lazy(() => import('./views/App/Master/Item/Condition'));\r\n \r\n const routes = [\r\n   { path: '/', exact: true, name: 'Home' },\r\n   \r\n   { path: '/dashboard', name: 'Dashboard', component: Dashboard },\r\n   { path: '/sell-item', name: 'Sell Item', component: SellItem },\r\n   \r\n   { path: '/master/user-type', name: 'Master / User Type', component: UserType },\r\n-  { path: '/master/user/buyer', name: 'Master / User / Buyer', component: Buyer },\r\n-  { path: '/master/user/seller', name: 'Master / User / Seller', component: Seller },\r\n-  { path: '/master/item/category', name: 'Master / Item / Category', component: Category },\r\n-  { path: '/master/item/condition', name: 'Master / Item / Condition', component: Condition },\r\n \r\n   { path: '/user-management/user', name: 'User Management / User', component: User },\r\n \r\n ];\r\n"
                },
                {
                    "date": 1625654091988,
                    "content": "Index: \n===================================================================\n--- \n+++ \n@@ -1,8 +1,7 @@\n import React from 'react';\r\n \r\n const Dashboard = React.lazy(() => import('./views/dashboard/Dashboard'));\r\n-const SellItem = React.lazy(() => import('./views/App/Sell Item/SellItem'));\r\n \r\n const User = React.lazy(() => import('./views/App/User Management/User'));\r\n \r\n const UserType = React.lazy(() => import('./views/App/Master/UserType'));\r\n@@ -10,9 +9,8 @@\n const routes = [\r\n   { path: '/', exact: true, name: 'Home' },\r\n   \r\n   { path: '/dashboard', name: 'Dashboard', component: Dashboard },\r\n-  { path: '/sell-item', name: 'Sell Item', component: SellItem },\r\n   \r\n   { path: '/master/user-type', name: 'Master / User Type', component: UserType },\r\n \r\n   { path: '/user-management/user', name: 'User Management / User', component: User },\r\n"
                },
                {
                    "date": 1625678522310,
                    "content": "Index: \n===================================================================\n--- \n+++ \n@@ -4,15 +4,17 @@\n \r\n const User = React.lazy(() => import('./views/App/User Management/User'));\r\n \r\n const UserType = React.lazy(() => import('./views/App/Master/UserType'));\r\n+const Merk = React.lazy(() => import('./views/App/Master/Merk'));\r\n \r\n const routes = [\r\n   { path: '/', exact: true, name: 'Home' },\r\n   \r\n   { path: '/dashboard', name: 'Dashboard', component: Dashboard },\r\n   \r\n   { path: '/master/user-type', name: 'Master / User Type', component: UserType },\r\n+  { path: '/master/merk', name: 'Master / Merk', component: Merk },\r\n \r\n   { path: '/user-management/user', name: 'User Management / User', component: User },\r\n \r\n ];\r\n"
                },
                {
                    "date": 1625713520103,
                    "content": "Index: \n===================================================================\n--- \n+++ \n@@ -5,16 +5,18 @@\n const User = React.lazy(() => import('./views/App/User Management/User'));\r\n \r\n const UserType = React.lazy(() => import('./views/App/Master/UserType'));\r\n const Merk = React.lazy(() => import('./views/App/Master/Merk'));\r\n+const Employee = React.lazy(() => import('./views/App/Master/Employee'));\r\n \r\n const routes = [\r\n   { path: '/', exact: true, name: 'Home' },\r\n   \r\n   { path: '/dashboard', name: 'Dashboard', component: Dashboard },\r\n   \r\n   { path: '/master/user-type', name: 'Master / User Type', component: UserType },\r\n   { path: '/master/merk', name: 'Master / Merk', component: Merk },\r\n+  { path: '/master/employee', name: 'Master / Employee', component: Employee },\r\n \r\n   { path: '/user-management/user', name: 'User Management / User', component: User },\r\n \r\n ];\r\n"
                },
                {
                    "date": 1627111768826,
                    "content": "Index: \n===================================================================\n--- \n+++ \n@@ -6,8 +6,9 @@\n \r\n const UserType = React.lazy(() => import('./views/App/Master/UserType'));\r\n const Merk = React.lazy(() => import('./views/App/Master/Merk'));\r\n const Employee = React.lazy(() => import('./views/App/Master/Employee'));\r\n+const JenisTransaksi = React.lazy(() => import('./views/App/Master/JenisTransaksi'));\r\n \r\n const routes = [\r\n   { path: '/', exact: true, name: 'Home' },\r\n   \r\n@@ -15,8 +16,9 @@\n   \r\n   { path: '/master/user-type', name: 'Master / User Type', component: UserType },\r\n   { path: '/master/merk', name: 'Master / Merk', component: Merk },\r\n   { path: '/master/employee', name: 'Master / Employee', component: Employee },\r\n+  { path: '/master/jenis-transaksi', name: 'Master / Jenis Transaksi', component: JenisTransaksi },\r\n \r\n   { path: '/user-management/user', name: 'User Management / User', component: User },\r\n \r\n ];\r\n"
                },
                {
                    "date": 1627171259279,
                    "content": "Index: \n===================================================================\n--- \n+++ \n@@ -1,7 +1,7 @@\n import React from 'react';\r\n \r\n-const Dashboard = React.lazy(() => import('./views/dashboard/Dashboard'));\r\n+const Dashboard = React.lazy(() => import('./views/App/Dashboard'));\r\n \r\n const User = React.lazy(() => import('./views/App/User Management/User'));\r\n \r\n const UserType = React.lazy(() => import('./views/App/Master/UserType'));\r\n"
                },
                {
                    "date": 1627178026972,
                    "content": "Index: \n===================================================================\n--- \n+++ \n@@ -7,8 +7,9 @@\n const UserType = React.lazy(() => import('./views/App/Master/UserType'));\r\n const Merk = React.lazy(() => import('./views/App/Master/Merk'));\r\n const Employee = React.lazy(() => import('./views/App/Master/Employee'));\r\n const JenisTransaksi = React.lazy(() => import('./views/App/Master/JenisTransaksi'));\r\n+const Satuan = React.lazy(() => import('./views/App/Master/Satuan'));\r\n \r\n const routes = [\r\n   { path: '/', exact: true, name: 'Home' },\r\n   \r\n@@ -17,8 +18,9 @@\n   { path: '/master/user-type', name: 'Master / User Type', component: UserType },\r\n   { path: '/master/merk', name: 'Master / Merk', component: Merk },\r\n   { path: '/master/employee', name: 'Master / Employee', component: Employee },\r\n   { path: '/master/jenis-transaksi', name: 'Master / Jenis Transaksi', component: JenisTransaksi },\r\n+  { path: '/master/satuan', name: 'Master / Satuan', component: Satuan },\r\n \r\n   { path: '/user-management/user', name: 'User Management / User', component: User },\r\n \r\n ];\r\n"
                },
                {
                    "date": 1627178500114,
                    "content": "Index: \n===================================================================\n--- \n+++ \n@@ -8,8 +8,9 @@\n const Merk = React.lazy(() => import('./views/App/Master/Merk'));\r\n const Employee = React.lazy(() => import('./views/App/Master/Employee'));\r\n const JenisTransaksi = React.lazy(() => import('./views/App/Master/JenisTransaksi'));\r\n const Satuan = React.lazy(() => import('./views/App/Master/Satuan'));\r\n+const Item = React.lazy(() => import('./views/App/Master/Item'));\r\n \r\n const routes = [\r\n   { path: '/', exact: true, name: 'Home' },\r\n   \r\n@@ -19,8 +20,9 @@\n   { path: '/master/merk', name: 'Master / Merk', component: Merk },\r\n   { path: '/master/employee', name: 'Master / Employee', component: Employee },\r\n   { path: '/master/jenis-transaksi', name: 'Master / Jenis Transaksi', component: JenisTransaksi },\r\n   { path: '/master/satuan', name: 'Master / Satuan', component: Satuan },\r\n+  { path: '/master/item', name: 'Master / Item', component: Item },\r\n \r\n   { path: '/user-management/user', name: 'User Management / User', component: User },\r\n \r\n ];\r\n"
                }
            ],
            "date": 1624092307601,
            "name": "Commit-0",
            "content": "import React from 'react';\r\n\r\nconst Dashboard = React.lazy(() => import('./views/dashboard/Dashboard'));\r\nconst User = React.lazy(() => import('./views/App/User Management/User'));\r\n\r\nconst routes = [\r\n  { path: '/', exact: true, name: 'Home' },\r\n  { path: '/dashboard', name: 'Dashboard', component: Dashboard },\r\n  { path: '/user-management/user', name: 'User Management / User', component: User },\r\n\r\n];\r\n\r\nexport default routes;\r\n"
        }
    ]
}